{
  "name": "Mohab amr",
  "username": "mohab_amr",
  "email": "mohabamr1@gmail.com",
  "mobile_number": "01100838247",
  "password": "test1234",
  "gender": "Male",
  "cover_pic": "http://img.url.com",
  "profile_pic": "http//img.url.com",
  "birthdate": "10/10/2010",
  "id": "3"
}
